[gd_scene load_steps=7 format=2]

[ext_resource path="res://blokoj/title_screen/Item_Icons/Настройки1.png" type="Texture" id=1]
[ext_resource path="res://blokoj/title_screen/Menu/fonts/Buttons_hover.tres" type="StyleBox" id=2]
[ext_resource path="res://blokoj/title_screen/Menu/fonts/18957.otf" type="DynamicFontData" id=3]
[ext_resource path="res://blokoj/title_screen/Menu/fonts/Buttons_stylel.tres" type="StyleBox" id=4]
[ext_resource path="res://blokoj/title_screen/Menu/Scripts/Start Game.gd" type="Script" id=5]

[sub_resource type="DynamicFont" id=1]
font_data = ExtResource( 3 )

[node name="Laborcenter" type="Button"]
visible = false
margin_top = 70.0
margin_right = 52.0
margin_bottom = 122.0
custom_styles/hover = ExtResource( 2 )
custom_styles/focus = ExtResource( 4 )
custom_fonts/font = SubResource( 1 )
text = "Рабочий центр"
icon = ExtResource( 1 )
flat = true
script = ExtResource( 5 )
__meta__ = {
"_edit_group_": true
}
load_scene = "res://blokoj/title_screen/Menu/scene/Options.tscn"
