[gd_scene load_steps=7 format=2]

[ext_resource path="res://blokoj/title_screen/Menu/fonts/18957.otf" type="DynamicFontData" id=1]
[ext_resource path="res://blokoj/title_screen/Menu/fonts/Buttons_stylel.tres" type="StyleBox" id=2]
[ext_resource path="res://blokoj/title_screen/Menu/fonts/Buttons_hover.tres" type="StyleBox" id=3]
[ext_resource path="res://blokoj/title_screen/Item_Icons/Центр1.png" type="Texture" id=4]
[ext_resource path="res://blokoj/title_screen/Menu/Scripts/Start Game.gd" type="Script" id=5]

[sub_resource type="DynamicFont" id=1]
font_data = ExtResource( 1 )

[node name="Resurso Center" type="Button"]
visible = false
margin_top = 210.0
margin_right = 52.0
margin_bottom = 262.0
custom_styles/hover = ExtResource( 3 )
custom_styles/focus = ExtResource( 2 )
custom_fonts/font = SubResource( 1 )
text = "Центр Ресурсов"
icon = ExtResource( 4 )
flat = true
script = ExtResource( 5 )
__meta__ = {
"_edit_group_": true
}
load_scene = "res://blokoj/title_screen/Menu/scene/Resurso Center.tscn"
